{
  "realm": "master",
  "auth-server-url": "http://nl-svr-bda1:9595/auth",
  "ssl-required": "none",
  "resource": "account",
  "verify-token-audience": true,
  "credentials": {
    "secret": "5a87b502-0111-4ceb-8b8a-14426cd517a6"
  },
  "use-resource-role-mappings": true,
  "confidential-port": 0
}
